<?xml version="1.0" encoding="UTF-8" standalone="no"?>
<svg
   xmlns:dc="http://purl.org/dc/elements/1.1/"
   xmlns:cc="http://creativecommons.org/ns#"
   xmlns:rdf="http://www.w3.org/1999/02/22-rdf-syntax-ns#"
   xmlns:svg="http://www.w3.org/2000/svg"
   xmlns="http://www.w3.org/2000/svg"
   xmlns:sodipodi="http://sodipodi.sourceforge.net/DTD/sodipodi-0.dtd"
   xmlns:inkscape="http://www.inkscape.org/namespaces/inkscape"
   id="Слой_1"
   data-name="Слой 1"
   viewBox="0 0 24 24"
   version="1.1"
   sodipodi:docname="export_to_pcbnew.svg"
   inkscape:version="1.0.2 (1.0.2+r75+1)">
  <sodipodi:namedview
     pagecolor="#ffffff"
     bordercolor="#666666"
     borderopacity="1"
     objecttolerance="10"
     gridtolerance="10"
     guidetolerance="10"
     inkscape:pageopacity="0"
     inkscape:pageshadow="2"
     inkscape:window-width="2560"
     inkscape:window-height="1371"
     id="namedview30"
     showgrid="true"
     inkscape:zoom="27.961538"
     inkscape:cx="-1.5860554"
     inkscape:cy="11.374985"
     inkscape:window-x="0"
     inkscape:window-y="0"
     inkscape:window-maximized="1"
     inkscape:document-rotation="0"
     inkscape:current-layer="layer4"
     inkscape:snap-bbox="false">
    <inkscape:grid
       type="xygrid"
       id="grid_kicad"
       spacingx="0.5"
       spacingy="0.5"
       color="#9999ff"
       opacity="0.13"
       empspacing="2" />
  </sodipodi:namedview>
  <metadata
     id="metadata43">
    <rdf:RDF>
      <cc:Work
         rdf:about="">
        <cc:license
           rdf:resource="http://creativecommons.org/licenses/by-sa/4.0/" />
        <dc:format>image/svg+xml</dc:format>
        <dc:type
           rdf:resource="http://purl.org/dc/dcmitype/StillImage" />
        <dc:title>update_pcb_from_sch</dc:title>
      </cc:Work>
      <cc:License
         rdf:about="http://creativecommons.org/licenses/by-sa/4.0/">
        <cc:permits
           rdf:resource="http://creativecommons.org/ns#Reproduction" />
        <cc:permits
           rdf:resource="http://creativecommons.org/ns#Distribution" />
        <cc:requires
           rdf:resource="http://creativecommons.org/ns#Notice" />
        <cc:requires
           rdf:resource="http://creativecommons.org/ns#Attribution" />
        <cc:permits
           rdf:resource="http://creativecommons.org/ns#DerivativeWorks" />
        <cc:requires
           rdf:resource="http://creativecommons.org/ns#ShareAlike" />
      </cc:License>
    </rdf:RDF>
  </metadata>
  <defs
     id="defs160221">
    <style
       id="style160219">.cls-1{fill:#d8d8d8;}.cls-2{fill:#E0E0E0;}.cls-3{fill:#F4EFF3;}.cls-4{fill:#42B8EB;}.cls-5{fill:#fff;}.cls-6{fill:#8f8f8f;}.cls-7{fill:none;stroke:#f2647e;stroke-linecap:round;stroke-linejoin:round;stroke-width:2px;}</style>
    <clipPath
       clipPathUnits="userSpaceOnUse"
       id="clipPath954">
      <rect
         style="fill:#f29100;fill-opacity:1;stroke:none;stroke-width:2;stroke-linecap:round;stroke-linejoin:round;stroke-miterlimit:4;stroke-dasharray:none"
         id="rect956"
         width="21"
         height="21"
         x="-33"
         y="-2"
         ry="3.4854646" />
    </clipPath>
    <clipPath
       clipPathUnits="userSpaceOnUse"
       id="clipPath1716">
      <rect
         style="fill:none;fill-opacity:1;stroke:#E0E0E0;stroke-width:2;stroke-linecap:round;stroke-linejoin:round;stroke-miterlimit:4;stroke-dasharray:none;stroke-opacity:1"
         id="rect1718"
         width="16"
         height="16"
         x="-16"
         y="0"
         ry="2.6555922" />
    </clipPath>
    <clipPath
       clipPathUnits="userSpaceOnUse"
       id="clipPath1720">
      <rect
         style="fill:none;fill-opacity:1;stroke:#E0E0E0;stroke-width:2;stroke-linecap:round;stroke-linejoin:round;stroke-miterlimit:4;stroke-dasharray:none;stroke-opacity:1"
         id="rect1722"
         width="16"
         height="16"
         x="8"
         y="4.9999995"
         ry="2.6555922" />
    </clipPath>
    <clipPath
       clipPathUnits="userSpaceOnUse"
       id="clipPath1724">
      <rect
         style="fill:none;fill-opacity:1;stroke:#E0E0E0;stroke-width:1.99999;stroke-linecap:round;stroke-linejoin:round;stroke-miterlimit:4;stroke-dasharray:none;stroke-opacity:1"
         id="rect1726"
         width="24"
         height="24"
         x="0"
         y="1.5000001"
         ry="3.9833882" />
    </clipPath>
    <clipPath
       clipPathUnits="userSpaceOnUse"
       id="clipPath1728">
      <rect
         style="fill:none;fill-opacity:1;stroke:#E0E0E0;stroke-width:2;stroke-linecap:round;stroke-linejoin:round;stroke-miterlimit:4;stroke-dasharray:none;stroke-opacity:1"
         id="rect1730"
         width="19.193281"
         height="19.193281"
         x="7.2026482"
         y="2.4736307"
         ry="3.1855955" />
    </clipPath>
    <clipPath
       clipPathUnits="userSpaceOnUse"
       id="clipPath1732">
      <rect
         style="fill:none;fill-opacity:1;stroke:#E0E0E0;stroke-width:1.99999;stroke-linecap:round;stroke-linejoin:round;stroke-miterlimit:4;stroke-dasharray:none;stroke-opacity:1"
         id="rect1734"
         width="24"
         height="24"
         x="0"
         y="1.5000001"
         ry="3.9833882" />
    </clipPath>
    <clipPath
       clipPathUnits="userSpaceOnUse"
       id="clipPath1736">
      <rect
         style="fill:none;fill-opacity:1;stroke:#E0E0E0;stroke-width:2;stroke-linecap:round;stroke-linejoin:round;stroke-miterlimit:4;stroke-dasharray:none;stroke-opacity:1"
         id="rect1738"
         width="24"
         height="16"
         x="0"
         y="8.5"
         ry="2.6555922" />
    </clipPath>
    <clipPath
       clipPathUnits="userSpaceOnUse"
       id="clipPath1740">
      <rect
         style="fill:none;fill-opacity:1;stroke:#E0E0E0;stroke-width:1.99999;stroke-linecap:round;stroke-linejoin:round;stroke-miterlimit:4;stroke-dasharray:none;stroke-opacity:1"
         id="rect1742"
         width="24"
         height="24"
         x="-1.218765"
         y="0"
         ry="3.9833882" />
    </clipPath>
    <clipPath
       clipPathUnits="userSpaceOnUse"
       id="clipPath1744">
      <rect
         style="fill:none;fill-opacity:1;stroke:#E0E0E0;stroke-width:2;stroke-linecap:round;stroke-linejoin:round;stroke-miterlimit:4;stroke-dasharray:none;stroke-opacity:1"
         id="rect1746"
         width="23.9916"
         height="23.9916"
         x="17.719002"
         y="-2.9032607"
         ry="3.9819942" />
    </clipPath>
    <clipPath
       clipPathUnits="userSpaceOnUse"
       id="clipPath1748">
      <rect
         style="fill:none;fill-opacity:1;stroke:#E0E0E0;stroke-width:1.99999;stroke-linecap:round;stroke-linejoin:round;stroke-miterlimit:4;stroke-dasharray:none;stroke-opacity:1"
         id="rect1750"
         width="24"
         height="24"
         x="0"
         y="1.3164756"
         ry="3.9833882" />
    </clipPath>
    <clipPath
       clipPathUnits="userSpaceOnUse"
       id="clipPath1752">
      <rect
         style="fill:none;fill-opacity:1;stroke:#E0E0E0;stroke-width:1.99999;stroke-linecap:round;stroke-linejoin:round;stroke-miterlimit:4;stroke-dasharray:none;stroke-opacity:1"
         id="rect1754"
         width="24"
         height="24"
         x="0"
         y="0"
         ry="3.9833882" />
    </clipPath>
    <clipPath
       clipPathUnits="userSpaceOnUse"
       id="clipPath1756">
      <rect
         style="fill:none;fill-opacity:1;stroke:#E0E0E0;stroke-width:1.99999;stroke-linecap:round;stroke-linejoin:round;stroke-miterlimit:4;stroke-dasharray:none;stroke-opacity:1"
         id="rect1758"
         width="24"
         height="24"
         x="0"
         y="0"
         ry="3.9833882" />
    </clipPath>
    <clipPath
       clipPathUnits="userSpaceOnUse"
       id="clipPath956">
      <rect
         style="fill:#f29100;fill-opacity:1;stroke:none;stroke-width:2;stroke-linecap:round;stroke-linejoin:round;stroke-miterlimit:4;stroke-dasharray:none"
         id="rect958"
         width="24"
         height="24"
         x="0"
         y="0"
         ry="3.9833882" />
    </clipPath>
    <clipPath
       clipPathUnits="userSpaceOnUse"
       id="clipPath952">
      <rect
         style="fill:#f29100;fill-opacity:1;stroke:none;stroke-width:2;stroke-linecap:round;stroke-linejoin:round;stroke-miterlimit:4;stroke-dasharray:none"
         id="rect954"
         width="24"
         height="24"
         x="0"
         y="0"
         ry="3.9833882" />
    </clipPath>
    <clipPath
       clipPathUnits="userSpaceOnUse"
       id="clipPath948">
      <rect
         style="fill:#f29100;fill-opacity:1;stroke:none;stroke-width:2;stroke-linecap:round;stroke-linejoin:round;stroke-miterlimit:4;stroke-dasharray:none"
         id="rect950"
         width="24"
         height="24"
         x="0"
         y="0"
         ry="3.9833882" />
    </clipPath>
    <clipPath
       clipPathUnits="userSpaceOnUse"
       id="clipPath940">
      <rect
         style="fill:#f29100;fill-opacity:1;stroke:none;stroke-width:2;stroke-linecap:round;stroke-linejoin:round;stroke-miterlimit:4;stroke-dasharray:none"
         id="rect942"
         width="24"
         height="24"
         x="0"
         y="0"
         ry="3.9833882" />
    </clipPath>
    <clipPath
       clipPathUnits="userSpaceOnUse"
       id="clipPath928">
      <rect
         style="fill:#f29100;fill-opacity:1;stroke:none;stroke-width:2;stroke-linecap:round;stroke-linejoin:round;stroke-miterlimit:4;stroke-dasharray:none"
         id="rect930"
         width="24"
         height="24"
         x="0"
         y="0"
         ry="3.9833882" />
    </clipPath>
    <clipPath
       clipPathUnits="userSpaceOnUse"
       id="clipPath920">
      <rect
         style="fill:#f29100;fill-opacity:1;stroke:none;stroke-width:2;stroke-linecap:round;stroke-linejoin:round;stroke-miterlimit:4;stroke-dasharray:none"
         id="rect922"
         width="24"
         height="24"
         x="0"
         y="0"
         ry="3.9833882" />
    </clipPath>
    <clipPath
       clipPathUnits="userSpaceOnUse"
       id="clipPath916">
      <rect
         style="fill:#f29100;fill-opacity:1;stroke:none;stroke-width:2;stroke-linecap:round;stroke-linejoin:round;stroke-miterlimit:4;stroke-dasharray:none"
         id="rect918"
         width="24"
         height="24"
         x="0"
         y="0"
         ry="3.9833882" />
    </clipPath>
    <clipPath
       clipPathUnits="userSpaceOnUse"
       id="clipPath912">
      <rect
         style="fill:#f29100;fill-opacity:1;stroke:none;stroke-width:2;stroke-linecap:round;stroke-linejoin:round;stroke-miterlimit:4;stroke-dasharray:none"
         id="rect914"
         width="24"
         height="24"
         x="0"
         y="0"
         ry="3.9833882" />
    </clipPath>
    <clipPath
       clipPathUnits="userSpaceOnUse"
       id="clipPath908">
      <rect
         style="fill:#f29100;fill-opacity:1;stroke:none;stroke-width:2;stroke-linecap:round;stroke-linejoin:round;stroke-miterlimit:4;stroke-dasharray:none"
         id="rect910"
         width="24"
         height="24"
         x="0"
         y="0"
         ry="3.9833882" />
    </clipPath>
    <clipPath
       clipPathUnits="userSpaceOnUse"
       id="clipPath904">
      <rect
         style="fill:#f29100;fill-opacity:1;stroke:none;stroke-width:2;stroke-linecap:round;stroke-linejoin:round;stroke-miterlimit:4;stroke-dasharray:none"
         id="rect906"
         width="24"
         height="24"
         x="0"
         y="0"
         ry="3.9833882" />
    </clipPath>
    <clipPath
       clipPathUnits="userSpaceOnUse"
       id="clipPath900">
      <rect
         style="fill:#f29100;fill-opacity:1;stroke:none;stroke-width:2;stroke-linecap:round;stroke-linejoin:round;stroke-miterlimit:4;stroke-dasharray:none"
         id="rect902"
         width="24"
         height="24"
         x="0"
         y="0"
         ry="3.9833882" />
    </clipPath>
    <clipPath
       clipPathUnits="userSpaceOnUse"
       id="clipPath896">
      <rect
         style="fill:#f29100;fill-opacity:1;stroke:none;stroke-width:2;stroke-linecap:round;stroke-linejoin:round;stroke-miterlimit:4;stroke-dasharray:none"
         id="rect898"
         width="24"
         height="24"
         x="0"
         y="0"
         ry="3.9833882" />
    </clipPath>
    <clipPath
       clipPathUnits="userSpaceOnUse"
       id="clipPath849">
      <rect
         class="cls-1"
         x="0.0015000105"
         y="0.036599994"
         width="23.998501"
         height="23.961901"
         rx="3.9967"
         id="rect851"
         style="fill:#e5d7c7;fill-opacity:1" />
    </clipPath>
    <clipPath
       clipPathUnits="userSpaceOnUse"
       id="clipPath853">
      <rect
         class="cls-1"
         x="0.0015000105"
         y="0.036599994"
         width="23.998501"
         height="23.961901"
         rx="3.9967"
         id="rect855"
         style="fill:#e5d7c7;fill-opacity:1" />
    </clipPath>
    <clipPath
       clipPathUnits="userSpaceOnUse"
       id="clipPath857">
      <rect
         class="cls-1"
         x="0.0015000105"
         y="0.036599994"
         width="23.998501"
         height="23.961901"
         rx="3.9967"
         id="rect859"
         style="fill:#e5d7c7;fill-opacity:1" />
    </clipPath>
    <clipPath
       clipPathUnits="userSpaceOnUse"
       id="clipPath861">
      <rect
         class="cls-1"
         x="0.0015000105"
         y="0.036599994"
         width="23.998501"
         height="23.961901"
         rx="3.9967"
         id="rect863"
         style="fill:#e5d7c7;fill-opacity:1"
         transform="rotate(-90)" />
    </clipPath>
    <clipPath
       clipPathUnits="userSpaceOnUse"
       id="clipPath865">
      <rect
         class="cls-1"
         x="0.0015000105"
         y="0.036599994"
         width="23.998501"
         height="23.961901"
         rx="3.9967"
         id="rect867"
         style="fill:#e5d7c7;fill-opacity:1" />
    </clipPath>
    <clipPath
       clipPathUnits="userSpaceOnUse"
       id="clipPath869">
      <rect
         class="cls-1"
         x="0.0015000105"
         y="0.036599994"
         width="23.998501"
         height="23.961901"
         rx="3.9967"
         id="rect871"
         style="fill:#e5d7c7;fill-opacity:1" />
    </clipPath>
    <clipPath
       clipPathUnits="userSpaceOnUse"
       id="clipPath873">
      <rect
         class="cls-1"
         x="0.0015000105"
         y="0.036599994"
         width="23.998501"
         height="23.961901"
         rx="3.9967"
         id="rect875"
         style="fill:#e5d7c7;fill-opacity:1" />
    </clipPath>
    <clipPath
       clipPathUnits="userSpaceOnUse"
       id="clipPath877">
      <rect
         class="cls-1"
         x="0.0015000105"
         y="0.036599994"
         width="23.998501"
         height="23.961901"
         rx="3.9967"
         id="rect879"
         style="fill:#e5d7c7;fill-opacity:1" />
    </clipPath>
    <clipPath
       clipPathUnits="userSpaceOnUse"
       id="clipPath881">
      <rect
         class="cls-1"
         x="0.0015000105"
         y="0.036599994"
         width="23.998501"
         height="23.961901"
         rx="3.9967"
         id="rect883"
         style="fill:#e5d7c7;fill-opacity:1" />
    </clipPath>
    <clipPath
       clipPathUnits="userSpaceOnUse"
       id="clipPath885">
      <rect
         class="cls-1"
         x="0.0015000105"
         y="0.036599994"
         width="23.998501"
         height="23.961901"
         rx="3.9967"
         id="rect887"
         style="fill:#e5d7c7;fill-opacity:1" />
    </clipPath>
    <clipPath
       clipPathUnits="userSpaceOnUse"
       id="clipPath889">
      <rect
         class="cls-1"
         x="0.0015000105"
         y="0.036599994"
         width="23.998501"
         height="23.961901"
         rx="3.9967"
         id="rect891"
         style="fill:#e5d7c7;fill-opacity:1" />
    </clipPath>
    <clipPath
       clipPathUnits="userSpaceOnUse"
       id="clipPath893">
      <rect
         class="cls-1"
         x="0.0015000105"
         y="0.036599994"
         width="23.998501"
         height="23.961901"
         rx="3.9967"
         id="rect895"
         style="fill:#e5d7c7;fill-opacity:1" />
    </clipPath>
    <clipPath
       clipPathUnits="userSpaceOnUse"
       id="clipPath956-3">
      <rect
         style="fill:#f29100;fill-opacity:1;stroke:none;stroke-width:2;stroke-linecap:round;stroke-linejoin:round;stroke-miterlimit:4;stroke-dasharray:none"
         id="rect958-6"
         width="24"
         height="24"
         x="0"
         y="0"
         ry="3.9833882" />
    </clipPath>
    <clipPath
       clipPathUnits="userSpaceOnUse"
       id="clipPath952-7">
      <rect
         style="fill:#f29100;fill-opacity:1;stroke:none;stroke-width:2;stroke-linecap:round;stroke-linejoin:round;stroke-miterlimit:4;stroke-dasharray:none"
         id="rect954-5"
         width="24"
         height="24"
         x="0"
         y="0"
         ry="3.9833882" />
    </clipPath>
    <clipPath
       clipPathUnits="userSpaceOnUse"
       id="clipPath948-3">
      <rect
         style="fill:#f29100;fill-opacity:1;stroke:none;stroke-width:2;stroke-linecap:round;stroke-linejoin:round;stroke-miterlimit:4;stroke-dasharray:none"
         id="rect950-5"
         width="24"
         height="24"
         x="0"
         y="0"
         ry="3.9833882" />
    </clipPath>
    <clipPath
       clipPathUnits="userSpaceOnUse"
       id="clipPath940-6">
      <rect
         style="fill:#f29100;fill-opacity:1;stroke:none;stroke-width:2;stroke-linecap:round;stroke-linejoin:round;stroke-miterlimit:4;stroke-dasharray:none"
         id="rect942-2"
         width="24"
         height="24"
         x="0"
         y="0"
         ry="3.9833882" />
    </clipPath>
    <clipPath
       clipPathUnits="userSpaceOnUse"
       id="clipPath928-9">
      <rect
         style="fill:#f29100;fill-opacity:1;stroke:none;stroke-width:2;stroke-linecap:round;stroke-linejoin:round;stroke-miterlimit:4;stroke-dasharray:none"
         id="rect930-1"
         width="24"
         height="24"
         x="0"
         y="0"
         ry="3.9833882" />
    </clipPath>
    <clipPath
       clipPathUnits="userSpaceOnUse"
       id="clipPath920-2">
      <rect
         style="fill:#f29100;fill-opacity:1;stroke:none;stroke-width:2;stroke-linecap:round;stroke-linejoin:round;stroke-miterlimit:4;stroke-dasharray:none"
         id="rect922-7"
         width="24"
         height="24"
         x="0"
         y="0"
         ry="3.9833882" />
    </clipPath>
    <clipPath
       clipPathUnits="userSpaceOnUse"
       id="clipPath916-0">
      <rect
         style="fill:#f29100;fill-opacity:1;stroke:none;stroke-width:2;stroke-linecap:round;stroke-linejoin:round;stroke-miterlimit:4;stroke-dasharray:none"
         id="rect918-9"
         width="24"
         height="24"
         x="0"
         y="0"
         ry="3.9833882" />
    </clipPath>
    <clipPath
       clipPathUnits="userSpaceOnUse"
       id="clipPath912-3">
      <rect
         style="fill:#f29100;fill-opacity:1;stroke:none;stroke-width:2;stroke-linecap:round;stroke-linejoin:round;stroke-miterlimit:4;stroke-dasharray:none"
         id="rect914-6"
         width="24"
         height="24"
         x="0"
         y="0"
         ry="3.9833882" />
    </clipPath>
    <clipPath
       clipPathUnits="userSpaceOnUse"
       id="clipPath908-0">
      <rect
         style="fill:#f29100;fill-opacity:1;stroke:none;stroke-width:2;stroke-linecap:round;stroke-linejoin:round;stroke-miterlimit:4;stroke-dasharray:none"
         id="rect910-6"
         width="24"
         height="24"
         x="0"
         y="0"
         ry="3.9833882" />
    </clipPath>
    <clipPath
       clipPathUnits="userSpaceOnUse"
       id="clipPath904-2">
      <rect
         style="fill:#f29100;fill-opacity:1;stroke:none;stroke-width:2;stroke-linecap:round;stroke-linejoin:round;stroke-miterlimit:4;stroke-dasharray:none"
         id="rect906-6"
         width="24"
         height="24"
         x="0"
         y="0"
         ry="3.9833882" />
    </clipPath>
    <clipPath
       clipPathUnits="userSpaceOnUse"
       id="clipPath900-1">
      <rect
         style="fill:#f29100;fill-opacity:1;stroke:none;stroke-width:2;stroke-linecap:round;stroke-linejoin:round;stroke-miterlimit:4;stroke-dasharray:none"
         id="rect902-8"
         width="24"
         height="24"
         x="0"
         y="0"
         ry="3.9833882" />
    </clipPath>
    <clipPath
       clipPathUnits="userSpaceOnUse"
       id="clipPath896-7">
      <rect
         style="fill:#f29100;fill-opacity:1;stroke:none;stroke-width:2;stroke-linecap:round;stroke-linejoin:round;stroke-miterlimit:4;stroke-dasharray:none"
         id="rect898-9"
         width="24"
         height="24"
         x="0"
         y="0"
         ry="3.9833882" />
    </clipPath>
    <clipPath
       clipPathUnits="userSpaceOnUse"
       id="clipPath889-2">
      <rect
         class="cls-1"
         x="0.0015000105"
         y="0.036599994"
         width="23.998501"
         height="23.961901"
         rx="3.9967"
         id="rect891-3"
         style="fill:#e5d7c7;fill-opacity:1" />
    </clipPath>
    <clipPath
       clipPathUnits="userSpaceOnUse"
       id="clipPath881-9">
      <rect
         class="cls-1"
         x="0.0015000105"
         y="0.036599994"
         width="23.998501"
         height="23.961901"
         rx="3.9967"
         id="rect883-2"
         style="fill:#e5d7c7;fill-opacity:1" />
    </clipPath>
    <clipPath
       clipPathUnits="userSpaceOnUse"
       id="clipPath877-2">
      <rect
         class="cls-1"
         x="0.0015000105"
         y="0.036599994"
         width="23.998501"
         height="23.961901"
         rx="3.9967"
         id="rect879-8"
         style="fill:#e5d7c7;fill-opacity:1" />
    </clipPath>
    <clipPath
       clipPathUnits="userSpaceOnUse"
       id="clipPath873-9">
      <rect
         class="cls-1"
         x="0.0015000105"
         y="0.036599994"
         width="23.998501"
         height="23.961901"
         rx="3.9967"
         id="rect875-7"
         style="fill:#e5d7c7;fill-opacity:1" />
    </clipPath>
    <clipPath
       clipPathUnits="userSpaceOnUse"
       id="clipPath869-3">
      <rect
         class="cls-1"
         x="0.0015000105"
         y="0.036599994"
         width="23.998501"
         height="23.961901"
         rx="3.9967"
         id="rect871-6"
         style="fill:#e5d7c7;fill-opacity:1" />
    </clipPath>
    <clipPath
       clipPathUnits="userSpaceOnUse"
       id="clipPath861-9">
      <rect
         class="cls-1"
         x="0.0015000105"
         y="0.036599994"
         width="23.998501"
         height="23.961901"
         rx="3.9967"
         id="rect863-3"
         style="fill:#e5d7c7;fill-opacity:1"
         transform="rotate(-90)" />
    </clipPath>
    <clipPath
       clipPathUnits="userSpaceOnUse"
       id="clipPath1681">
      <path
         style="fill:none;stroke:#000000;stroke-width:1px;stroke-linecap:butt;stroke-linejoin:miter;stroke-opacity:1"
         d="M 19,0 5,24 H 0 V 0 Z"
         id="path1683" />
    </clipPath>
    <clipPath
       clipPathUnits="userSpaceOnUse"
       id="clipPath1685">
      <path
         style="fill:none;stroke:#000000;stroke-width:1px;stroke-linecap:butt;stroke-linejoin:miter;stroke-opacity:1"
         d="M 19,0 5,24 H 0 V 0 Z"
         id="path1687" />
    </clipPath>
    <clipPath
       clipPathUnits="userSpaceOnUse"
       id="clipPath1689">
      <path
         style="fill:none;stroke:#000000;stroke-width:1px;stroke-linecap:butt;stroke-linejoin:miter;stroke-opacity:1"
         d="M 19,0 5,24 H 0 V 0 Z"
         id="path1691" />
    </clipPath>
    <clipPath
       clipPathUnits="userSpaceOnUse"
       id="clipPath1693">
      <path
         style="fill:none;stroke:#000000;stroke-width:1px;stroke-linecap:butt;stroke-linejoin:miter;stroke-opacity:1"
         d="M 19,0 5,24 H 0 V 0 Z"
         id="path1695" />
    </clipPath>
    <clipPath
       clipPathUnits="userSpaceOnUse"
       id="clipPath1697">
      <path
         style="fill:none;stroke:#000000;stroke-width:1px;stroke-linecap:butt;stroke-linejoin:miter;stroke-opacity:1"
         d="M 19,0 5,24 H 0 V 0 Z"
         id="path1699" />
    </clipPath>
    <clipPath
       clipPathUnits="userSpaceOnUse"
       id="clipPath1701">
      <path
         style="fill:none;stroke:#000000;stroke-width:1px;stroke-linecap:butt;stroke-linejoin:miter;stroke-opacity:1"
         d="M 19,0 5,24 H 0 V 0 Z"
         id="path1703" />
    </clipPath>
    <clipPath
       clipPathUnits="userSpaceOnUse"
       id="clipPath1705">
      <path
         style="fill:none;stroke:#000000;stroke-width:1px;stroke-linecap:butt;stroke-linejoin:miter;stroke-opacity:1"
         d="M 19,0 5,24 H 0 V 0 Z"
         id="path1707" />
    </clipPath>
    <clipPath
       clipPathUnits="userSpaceOnUse"
       id="clipPath1709">
      <path
         style="fill:none;stroke:#000000;stroke-width:1px;stroke-linecap:butt;stroke-linejoin:miter;stroke-opacity:1"
         d="M 19,0 5,24 H 0 V 0 Z"
         id="path1711" />
    </clipPath>
    <clipPath
       clipPathUnits="userSpaceOnUse"
       id="clipPath1713">
      <path
         style="fill:none;stroke:#000000;stroke-width:1px;stroke-linecap:butt;stroke-linejoin:miter;stroke-opacity:1"
         d="M 19,0 5,24 H 0 V 0 Z"
         id="path1715" />
    </clipPath>
    <clipPath
       clipPathUnits="userSpaceOnUse"
       id="clipPath1717">
      <path
         style="fill:none;stroke:#000000;stroke-width:1px;stroke-linecap:butt;stroke-linejoin:miter;stroke-opacity:1"
         d="M 19,0 5,24 H 0 V 0 Z"
         id="path1719" />
    </clipPath>
    <clipPath
       clipPathUnits="userSpaceOnUse"
       id="clipPath1721">
      <path
         style="fill:none;stroke:#000000;stroke-width:1px;stroke-linecap:butt;stroke-linejoin:miter;stroke-opacity:1"
         d="m 19.0015,0.0366 -14,24 h -5 v -24 z"
         id="path1723" />
    </clipPath>
    <clipPath
       clipPathUnits="userSpaceOnUse"
       id="clipPath1014">
      <rect
         class="cls-1"
         x="0"
         y="0"
         width="22.000002"
         height="22"
         rx="3.6663465"
         id="rect1016"
         style="stroke-width:0.999994" />
    </clipPath>
    <clipPath
       clipPathUnits="userSpaceOnUse"
       id="clipPath1010">
      <rect
         class="cls-1"
         x="0"
         y="0"
         width="22.000002"
         height="22"
         rx="3.6663465"
         id="rect1012"
         style="stroke-width:0.999994" />
    </clipPath>
    <clipPath
       clipPathUnits="userSpaceOnUse"
       id="clipPath1006">
      <rect
         class="cls-1"
         x="0"
         y="0"
         width="22.000002"
         height="22"
         rx="3.6663465"
         id="rect1008"
         style="stroke-width:0.999994" />
    </clipPath>
    <clipPath
       clipPathUnits="userSpaceOnUse"
       id="clipPath1002">
      <rect
         class="cls-1"
         x="0"
         y="0"
         width="22.000002"
         height="22"
         rx="3.6663465"
         id="rect1004"
         style="stroke-width:0.999994" />
    </clipPath>
    <clipPath
       clipPathUnits="userSpaceOnUse"
       id="clipPath998">
      <rect
         class="cls-1"
         x="0"
         y="0"
         width="22.000002"
         height="22"
         rx="3.6663465"
         id="rect1000"
         style="stroke-width:0.999994" />
    </clipPath>
    <clipPath
       clipPathUnits="userSpaceOnUse"
       id="clipPath994">
      <rect
         class="cls-1"
         x="0"
         y="0"
         width="22.000002"
         height="22"
         rx="3.6663465"
         id="rect996"
         style="stroke-width:0.999994" />
    </clipPath>
    <clipPath
       clipPathUnits="userSpaceOnUse"
       id="clipPath990">
      <rect
         class="cls-1"
         x="0"
         y="0"
         width="22.000002"
         height="22"
         rx="3.6663465"
         id="rect992"
         style="stroke-width:0.999994" />
    </clipPath>
    <clipPath
       clipPathUnits="userSpaceOnUse"
       id="clipPath986">
      <rect
         class="cls-1"
         x="0"
         y="0"
         width="22.000002"
         height="22"
         rx="3.6663465"
         id="rect988"
         style="stroke-width:0.999994" />
    </clipPath>
    <clipPath
       clipPathUnits="userSpaceOnUse"
       id="clipPath982">
      <rect
         class="cls-1"
         x="0"
         y="0"
         width="22.000002"
         height="22"
         rx="3.6663465"
         id="rect984"
         style="stroke-width:0.999994" />
    </clipPath>
    <clipPath
       clipPathUnits="userSpaceOnUse"
       id="clipPath978">
      <rect
         class="cls-1"
         x="0"
         y="0"
         width="22.000002"
         height="22"
         rx="3.6663465"
         id="rect980"
         style="stroke-width:0.999994" />
    </clipPath>
    <clipPath
       clipPathUnits="userSpaceOnUse"
       id="clipPath974">
      <rect
         class="cls-1"
         x="0"
         y="0"
         width="22.000002"
         height="22"
         rx="3.6663465"
         id="rect976"
         style="stroke-width:0.999994" />
    </clipPath>
    <clipPath
       clipPathUnits="userSpaceOnUse"
       id="clipPath970">
      <rect
         class="cls-1"
         x="0"
         y="0"
         width="22.000002"
         height="22"
         rx="3.6663465"
         id="rect972"
         style="stroke-width:0.999994" />
    </clipPath>
    <clipPath
       clipPathUnits="userSpaceOnUse"
       id="clipPath966">
      <rect
         class="cls-1"
         x="0"
         y="0"
         width="22.000002"
         height="22"
         rx="3.6663465"
         id="rect968"
         style="stroke-width:0.999994" />
    </clipPath>
    <clipPath
       clipPathUnits="userSpaceOnUse"
       id="clipPath962">
      <rect
         class="cls-1"
         x="0"
         y="0"
         width="22.000002"
         height="22"
         rx="3.6663465"
         id="rect964"
         style="stroke-width:0.999994" />
    </clipPath>
    <clipPath
       clipPathUnits="userSpaceOnUse"
       id="clipPath958">
      <rect
         class="cls-1"
         x="0"
         y="0"
         width="22.000002"
         height="22"
         rx="3.6663465"
         id="rect960"
         style="stroke-width:0.999994" />
    </clipPath>
    <clipPath
       clipPathUnits="userSpaceOnUse"
       id="clipPath954-3">
      <rect
         class="cls-1"
         x="0"
         y="0"
         width="22.000002"
         height="22"
         rx="3.6663465"
         id="rect956-6"
         style="stroke-width:0.999994" />
    </clipPath>
    <clipPath
       clipPathUnits="userSpaceOnUse"
       id="clipPath942">
      <rect
         class="cls-1"
         x="0"
         y="0"
         width="22.000002"
         height="22"
         rx="3.6663465"
         id="rect944"
         style="stroke-width:0.999994" />
    </clipPath>
    <clipPath
       clipPathUnits="userSpaceOnUse"
       id="clipPath1281">
      <path
         id="path1283"
         style="fill:#d8d8d8;stroke-width:0.999994"
         d="M 3.6663465,0 H 18.333655 C 12,11.5 11,13.5 5.5,24 1,24.5 0,22 0,20.333653 V 3.6663465 C 0,1.6351906 1.6351906,0 3.6663465,0 Z"
         class="cls-1"
         sodipodi:nodetypes="sccsss" />
    </clipPath>
    <clipPath
       clipPathUnits="userSpaceOnUse"
       id="clipPath1285">
      <path
         id="path1287"
         style="fill:#d8d8d8;stroke-width:0.999994"
         d="M 3.6663465,0 H 18.333655 C 12,11.5 11,13.5 5.5,24 1,24.5 0,22 0,20.333653 V 3.6663465 C 0,1.6351906 1.6351906,0 3.6663465,0 Z"
         class="cls-1"
         sodipodi:nodetypes="sccsss" />
    </clipPath>
    <clipPath
       clipPathUnits="userSpaceOnUse"
       id="clipPath1289">
      <path
         id="path1291"
         style="fill:#d8d8d8;stroke-width:0.999994"
         d="M 3.6663465,0 H 18.333655 C 12,11.5 11,13.5 5.5,24 1,24.5 0,22 0,20.333653 V 3.6663465 C 0,1.6351906 1.6351906,0 3.6663465,0 Z"
         class="cls-1"
         sodipodi:nodetypes="sccsss" />
    </clipPath>
    <clipPath
       clipPathUnits="userSpaceOnUse"
       id="clipPath1293">
      <path
         id="path1295"
         style="fill:#d8d8d8;stroke-width:0.999994"
         d="M 3.6663465,0 H 18.333655 C 12,11.5 11,13.5 5.5,24 1,24.5 0,22 0,20.333653 V 3.6663465 C 0,1.6351906 1.6351906,0 3.6663465,0 Z"
         class="cls-1"
         sodipodi:nodetypes="sccsss" />
    </clipPath>
    <clipPath
       clipPathUnits="userSpaceOnUse"
       id="clipPath1297">
      <path
         id="path1299"
         style="fill:#d8d8d8;stroke-width:0.999994"
         d="M 3.6663465,0 H 18.333655 C 12,11.5 11,13.5 5.5,24 1,24.5 0,22 0,20.333653 V 3.6663465 C 0,1.6351906 1.6351906,0 3.6663465,0 Z"
         class="cls-1"
         sodipodi:nodetypes="sccsss" />
    </clipPath>
    <clipPath
       clipPathUnits="userSpaceOnUse"
       id="clipPath1301">
      <path
         id="path1303"
         style="fill:#d8d8d8;stroke-width:0.999994"
         d="M 3.6663465,0 H 18.333655 C 12,11.5 11,13.5 5.5,24 1,24.5 0,22 0,20.333653 V 3.6663465 C 0,1.6351906 1.6351906,0 3.6663465,0 Z"
         class="cls-1"
         sodipodi:nodetypes="sccsss" />
    </clipPath>
    <clipPath
       clipPathUnits="userSpaceOnUse"
       id="clipPath1305">
      <path
         id="path1307"
         style="fill:#d8d8d8;stroke-width:0.999994"
         d="M 3.6663465,0 H 18.333655 C 12,11.5 11,13.5 5.5,24 1,24.5 0,22 0,20.333653 V 3.6663465 C 0,1.6351906 1.6351906,0 3.6663465,0 Z"
         class="cls-1"
         sodipodi:nodetypes="sccsss" />
    </clipPath>
    <clipPath
       clipPathUnits="userSpaceOnUse"
       id="clipPath1309">
      <path
         id="path1311"
         style="fill:#d8d8d8;stroke-width:0.999994"
         d="M 3.6663465,0 H 18.333655 C 12,11.5 11,13.5 5.5,24 1,24.5 0,22 0,20.333653 V 3.6663465 C 0,1.6351906 1.6351906,0 3.6663465,0 Z"
         class="cls-1"
         sodipodi:nodetypes="sccsss" />
    </clipPath>
    <clipPath
       clipPathUnits="userSpaceOnUse"
       id="clipPath1313">
      <path
         id="path1315"
         style="fill:#d8d8d8;stroke-width:0.999994"
         d="M 3.6663465,0 H 18.333655 C 12,11.5 11,13.5 5.5,24 1,24.5 0,22 0,20.333653 V 3.6663465 C 0,1.6351906 1.6351906,0 3.6663465,0 Z"
         class="cls-1"
         sodipodi:nodetypes="sccsss" />
    </clipPath>
    <clipPath
       clipPathUnits="userSpaceOnUse"
       id="clipPath1317">
      <path
         id="path1319"
         style="fill:#d8d8d8;stroke-width:0.999994"
         d="M 3.6663465,0 H 18.333655 C 12,11.5 11,13.5 5.5,24 1,24.5 0,22 0,20.333653 V 3.6663465 C 0,1.6351906 1.6351906,0 3.6663465,0 Z"
         class="cls-1"
         sodipodi:nodetypes="sccsss" />
    </clipPath>
    <clipPath
       clipPathUnits="userSpaceOnUse"
       id="clipPath1321">
      <path
         id="path1323"
         style="fill:#d8d8d8;stroke-width:0.999994"
         d="M 3.6663465,0 H 18.333655 C 12,11.5 11,13.5 5.5,24 1,24.5 0,22 0,20.333653 V 3.6663465 C 0,1.6351906 1.6351906,0 3.6663465,0 Z"
         class="cls-1"
         sodipodi:nodetypes="sccsss" />
    </clipPath>
    <clipPath
       clipPathUnits="userSpaceOnUse"
       id="clipPath1325">
      <path
         id="path1327"
         style="fill:#d8d8d8;stroke-width:0.999994"
         d="M 3.6663465,0 H 18.333655 C 12,11.5 11,13.5 5.5,24 1,24.5 0,22 0,20.333653 V 3.6663465 C 0,1.6351906 1.6351906,0 3.6663465,0 Z"
         class="cls-1"
         sodipodi:nodetypes="sccsss" />
    </clipPath>
    <clipPath
       clipPathUnits="userSpaceOnUse"
       id="clipPath1329">
      <path
         id="path1331"
         style="fill:#d8d8d8;stroke-width:0.999994"
         d="M 3.6663465,0 H 18.333655 C 12,11.5 11,13.5 5.5,24 1,24.5 0,22 0,20.333653 V 3.6663465 C 0,1.6351906 1.6351906,0 3.6663465,0 Z"
         class="cls-1"
         sodipodi:nodetypes="sccsss" />
    </clipPath>
    <clipPath
       clipPathUnits="userSpaceOnUse"
       id="clipPath1333">
      <path
         id="path1335"
         style="fill:#d8d8d8;stroke-width:0.999994"
         d="M 3.6663465,0 H 18.333655 C 12,11.5 11,13.5 5.5,24 1,24.5 0,22 0,20.333653 V 3.6663465 C 0,1.6351906 1.6351906,0 3.6663465,0 Z"
         class="cls-1"
         sodipodi:nodetypes="sccsss" />
    </clipPath>
    <clipPath
       clipPathUnits="userSpaceOnUse"
       id="clipPath1337">
      <path
         id="path1339"
         style="fill:#d8d8d8;stroke-width:0.999994"
         d="M 3.6663465,0 H 18.333655 C 12,11.5 11,13.5 5.5,24 1,24.5 0,22 0,20.333653 V 3.6663465 C 0,1.6351906 1.6351906,0 3.6663465,0 Z"
         class="cls-1"
         sodipodi:nodetypes="sccsss" />
    </clipPath>
    <clipPath
       clipPathUnits="userSpaceOnUse"
       id="clipPath1341">
      <path
         id="path1343"
         style="fill:#d8d8d8;stroke-width:0.999994"
         d="M 3.6663465,0 H 18.333655 C 12,11.5 11,13.5 5.5,24 1,24.5 0,22 0,20.333653 V 3.6663465 C 0,1.6351906 1.6351906,0 3.6663465,0 Z"
         class="cls-1"
         sodipodi:nodetypes="sccsss" />
    </clipPath>
    <clipPath
       clipPathUnits="userSpaceOnUse"
       id="clipPath1345">
      <path
         id="path1347"
         style="fill:#d8d8d8;stroke-width:0.999994"
         d="M 3.6663465,0 H 18.333655 C 12,11.5 11,13.5 5.5,24 1,24.5 0,22 0,20.333653 V 3.6663465 C 0,1.6351906 1.6351906,0 3.6663465,0 Z"
         class="cls-1"
         sodipodi:nodetypes="sccsss" />
    </clipPath>
    <clipPath
       clipPathUnits="userSpaceOnUse"
       id="clipPath1349">
      <path
         id="path1351"
         style="fill:#d8d8d8;stroke-width:0.999994"
         d="M 3.6663465,0 H 18.333655 C 12,10.541667 11,12.375 5.5,22 1,22.458333 0,20.166666 0,18.639182 V 3.3608176 C 0,1.4989247 1.6351906,0 3.6663465,0 Z"
         class="cls-1"
         sodipodi:nodetypes="sccsss" />
    </clipPath>
  </defs>
  <title
     id="title160223">update_pcb_from_sch</title>
  <g
     inkscape:groupmode="layer"
     id="layer1"
     inkscape:label="pcbnew"
     style="display:inline">
    <g
       id="g1157">
      <rect
         class="cls-1"
         x="1.4020385e-07"
         y="0"
         width="24"
         height="24"
         rx="0"
         id="rect9"
         style="fill:#489648;fill-opacity:1;stroke:none;stroke-width:0.499999;stroke-opacity:1"
         clip-path="url(#clipPath956-3)"
         ry="0" />
      <path
         class="cls-2"
         d="M 9.5000004,24 H 11 l 6,-5 v -5 l 1,-1 v 0 l 1,1 h 4 l 1,-1 V 5 L 23,4 h -4 l -1,1 h -2.5 l -1,-1 V 0 C 9.9949374,-0.001605 2.029505,0.001245 -0.0020687,0.001285 0,3.25 0,24 0,24 c 1.5,-0.02777 3.8093295,0 9.5000004,0 z"
         id="path11"
         sodipodi:nodetypes="ccccccccccccccccccc"
         style="fill:#006400;fill-opacity:1;stroke-width:0.49999899"
         clip-path="url(#clipPath952-7)"
         inkscape:connector-curvature="0"
         inkscape:export-filename="/Users/jeff/kicad_dev/kicad/bitmaps_png/png_26/export_to_pcbnew.png"
         inkscape:export-xdpi="96"
         inkscape:export-ydpi="96" />
      <path
         style="fill:none;stroke:#489648;stroke-width:2;stroke-linecap:butt;stroke-linejoin:miter;stroke-miterlimit:4;stroke-dasharray:none;stroke-opacity:1"
         d="M 20.25,9 H 17 l -3,3 -3,-12.25"
         id="path2253"
         sodipodi:nodetypes="cccc"
         clip-path="url(#clipPath948-3)"
         inkscape:connector-curvature="0" />
      <path
         style="fill:none;stroke:#2cb22c;stroke-width:2.82843;stroke-linecap:butt;stroke-linejoin:miter;stroke-miterlimit:4;stroke-dasharray:none;stroke-opacity:1"
         d="M 0,14.5 H 2"
         id="path892"
         sodipodi:nodetypes="cc"
         clip-path="url(#clipPath940-6)"
         transform="matrix(2.5,0,0,1,0,-0.085785)" />
      <path
         style="fill:none;stroke:#489648;stroke-width:2;stroke-linecap:butt;stroke-linejoin:miter;stroke-miterlimit:4;stroke-dasharray:none;stroke-opacity:1"
         d="M 5.5,24 V 20.5 L 9.5000004,17.5 9.4993123,9 5.5,8 v -8.25"
         id="path2265"
         sodipodi:nodetypes="cccccc"
         clip-path="url(#clipPath928-9)"
         transform="translate(4.5006877)"
         inkscape:connector-curvature="0" />
      <circle
         style="fill:#ffffff;fill-opacity:1;stroke:#f29100;stroke-width:1.5;stroke-linecap:round;stroke-linejoin:round;stroke-miterlimit:4;stroke-dasharray:none;stroke-opacity:1"
         id="path936"
         cx="5.5"
         cy="14.5"
         r="1.8317689" />
      <circle
         style="fill:#ffffff;fill-opacity:1;stroke:#dd8d15;stroke-width:1.5;stroke-linecap:round;stroke-linejoin:round;stroke-miterlimit:4;stroke-dasharray:none;stroke-opacity:1"
         id="circle938"
         cx="20.915913"
         cy="9.0609436"
         r="1.8317689" />
    </g>
  </g>
  <g
     inkscape:groupmode="layer"
     id="layer5"
     inkscape:label="gerbview"
     style="display:inline">
    <rect
       class="cls-1"
       x="0"
       y="0"
       width="22.000002"
       height="22"
       rx="3.6663465"
       id="rect2402"
       style="fill:#545454;stroke-width:0.957421;fill-opacity:1"
       clip-path="url(#clipPath1349)"
       transform="scale(1,1.0909091)" />
    <rect
       class="cls-2"
       x="3.9999998"
       y="5"
       width="3.9999998"
       height="3"
       id="rect1676"
       style="fill:#b9b9b9;stroke-width:0.999998;fill-opacity:1"
       ry="0.34226921"
       clip-path="url(#clipPath1345)" />
    <path
       class="cls-2"
       d="M 11.858431,4.2689639 A 1.373159,1.4423125 0 1 1 10.485465,2.8268538 1.3728699,1.4420088 0 0 1 11.858431,4.2689639 Z"
       id="path1706"
       style="fill:#b9b9b9;stroke-width:0.999998;fill-opacity:1"
       clip-path="url(#clipPath1341)" />
    <rect
       class="cls-2"
       x="4"
       y="1"
       width="3.9999998"
       height="3"
       id="rect2278"
       style="fill:#b9b9b9;stroke-width:0.999998;fill-opacity:1"
       ry="0.34226921"
       clip-path="url(#clipPath1337)" />
    <rect
       class="cls-2"
       x="3.9999998"
       y="9"
       width="3.9999998"
       height="3"
       id="rect2282"
       style="fill:#b9b9b9;stroke-width:0.999998;fill-opacity:1"
       ry="0.34226921"
       clip-path="url(#clipPath1333)" />
    <rect
       class="cls-2"
       x="12.999999"
       y="5"
       width="3.9999998"
       height="3"
       id="rect2284"
       style="fill:#b9b9b9;stroke-width:0.999998;fill-opacity:1"
       ry="0.34226921"
       clip-path="url(#clipPath1329)" />
    <rect
       class="cls-2"
       x="12.999999"
       y="0.99999994"
       width="3.9999998"
       height="3"
       id="rect2286"
       style="fill:#b9b9b9;stroke-width:0.999998;fill-opacity:1"
       ry="0.34226921"
       clip-path="url(#clipPath1325)" />
    <rect
       class="cls-2"
       x="12.999999"
       y="9"
       width="3.9999998"
       height="3"
       id="rect2290"
       style="fill:#8f8f8f;stroke-width:0.999998"
       ry="0.34226921"
       clip-path="url(#clipPath1321)" />
    <path
       style="fill:none;stroke:#b9b9b9;stroke-width:1;stroke-linecap:butt;stroke-linejoin:miter;stroke-miterlimit:4;stroke-dasharray:none;stroke-opacity:1"
       d="M 10.5,-2.2404278 V 8.2967255 L 12.597636,10.5 h 2.021842"
       id="path2292"
       clip-path="url(#clipPath1317)"
       sodipodi:nodetypes="cccc" />
    <path
       style="fill:none;stroke:#b9b9b9;stroke-width:1;stroke-linecap:butt;stroke-linejoin:miter;stroke-miterlimit:4;stroke-dasharray:none;stroke-opacity:1"
       d="M 5.975178,10.500101 H 1.3979811"
       id="path2294"
       clip-path="url(#clipPath1313)" />
    <path
       style="fill:none;stroke:#b9b9b9;stroke-width:0.999998;stroke-linecap:butt;stroke-linejoin:miter;stroke-miterlimit:4;stroke-dasharray:none;stroke-opacity:1"
       d="M 6.5,6.5 H 2.4875191 l -3.75,-3.7502096"
       id="path2296"
       clip-path="url(#clipPath1309)"
       sodipodi:nodetypes="ccc" />
    <path
       style="fill:none;stroke:#b9b9b9;stroke-width:2;stroke-linecap:butt;stroke-linejoin:miter;stroke-miterlimit:4;stroke-dasharray:none;stroke-opacity:1"
       d="M 6,1.7280007 V -2.7722508"
       id="path2298"
       clip-path="url(#clipPath1305)" />
    <path
       style="fill:none;stroke:#b9b9b9;stroke-width:1;stroke-linecap:butt;stroke-linejoin:miter;stroke-miterlimit:4;stroke-dasharray:none;stroke-opacity:1"
       d="m 15,2.5 h 7.437531"
       id="path2300"
       clip-path="url(#clipPath1301)"
       sodipodi:nodetypes="cc" />
    <path
       style="fill:none;stroke:#8f8f8f;stroke-width:1;stroke-linecap:butt;stroke-linejoin:miter;stroke-miterlimit:4;stroke-dasharray:none;stroke-opacity:1"
       d="M 15.062469,6.4326349 H 22.5"
       id="path2302"
       clip-path="url(#clipPath1297)"
       sodipodi:nodetypes="cc" />
    <path
       style="fill:none;stroke:#8f8f8f;stroke-width:1;stroke-linecap:butt;stroke-linejoin:miter;stroke-miterlimit:4;stroke-dasharray:none;stroke-opacity:1"
       d="M 14.489907,10.5 H 22.5"
       id="path2304"
       clip-path="url(#clipPath1293)"
       sodipodi:nodetypes="cc" />
    <path
       class="cls-2"
       d="M 3,10.5 A 1.373159,1.4423126 0 1 1 1.6270336,9.0578906 1.3728699,1.4420089 0 0 1 3,10.5 Z"
       id="path1710"
       style="fill:#b9b9b9;stroke-width:0.999998;fill-opacity:1"
       clip-path="url(#clipPath1289)" />
    <path
       style="fill:#b9b9b9;fill-opacity:1;stroke:none;stroke-width:0.999998px;stroke-linecap:butt;stroke-linejoin:miter;stroke-opacity:1"
       d="m 2,14 -2.1543935,-0.01085 v 9.350377 H 9 V 15 L 8.084561,13.989148 5,14 4,13 H 3"
       id="path2312"
       clip-path="url(#clipPath1285)"
       sodipodi:nodetypes="ccccccccc" />
    <path
       style="fill:none;stroke:#b9b9b9;stroke-width:1;stroke-linecap:butt;stroke-linejoin:miter;stroke-miterlimit:4;stroke-dasharray:none;stroke-opacity:1"
       d="M 7.1691215,10.5 H 9 l 1.5,1.5 v 11"
       id="path3158"
       clip-path="url(#clipPath1281)"
       sodipodi:nodetypes="cccc" />
  </g>
  <g
     inkscape:groupmode="layer"
     id="layer4"
     inkscape:label="wipe"
     style="display:inline">
    <path
       style="display:inline;fill:none;stroke:#545454;stroke-width:3;stroke-linecap:round;stroke-linejoin:miter;stroke-miterlimit:4;stroke-dasharray:none;stroke-opacity:1"
       d="M 5.143594,24 19,0"
       id="path1543"
       inkscape:connector-curvature="0" />
    <path
       style="display:inline;fill:none;stroke:#F4EFF3;stroke-width:1.5;stroke-linecap:round;stroke-linejoin:miter;stroke-miterlimit:4;stroke-dasharray:none;stroke-opacity:1"
       d="M 5.143594,24 19,0"
       id="path1545"
       inkscape:connector-curvature="0" />
  </g>
  <g
     inkscape:groupmode="layer"
     id="layer3"
     inkscape:label="arrow"
     transform="translate(0.49849999,-28.786099)"
     style="display:inline">
    <g
       id="g2044"
       transform="matrix(1.3253403,0,0,0.99999998,-3.1460037,28.684945)"
       style="display:inline;stroke-width:0.868633">
      <g
         id="g1824"
         style="display:inline;stroke-width:0.779883"
         transform="matrix(1.0555783,0,0,1.1752278,-0.55764428,-3.5320641)">
        <path
           id="path1816"
           style="fill:none;stroke:#fffefe;stroke-width:3.11953;stroke-linecap:round;stroke-linejoin:round;stroke-miterlimit:4;stroke-dasharray:none;stroke-opacity:1"
           d="m 8.0337885,17.101154 2.4259995,2.999382 -2.4259995,3.000618"
           sodipodi:nodetypes="ccc" />
        <path
           style="color:#000000;font-style:normal;font-variant:normal;font-weight:normal;font-stretch:normal;font-size:medium;line-height:normal;font-family:sans-serif;font-variant-ligatures:normal;font-variant-position:normal;font-variant-caps:normal;font-variant-numeric:normal;font-variant-alternates:normal;font-variant-east-asian:normal;font-feature-settings:normal;font-variation-settings:normal;text-indent:0;text-align:start;text-decoration:none;text-decoration-line:none;text-decoration-style:solid;text-decoration-color:#000000;letter-spacing:normal;word-spacing:normal;text-transform:none;writing-mode:lr-tb;direction:ltr;text-orientation:mixed;dominant-baseline:auto;baseline-shift:baseline;text-anchor:start;white-space:normal;shape-padding:0;shape-margin:0;inline-size:0;clip-rule:nonzero;display:inline;overflow:visible;visibility:visible;opacity:1;isolation:auto;mix-blend-mode:normal;color-interpolation:sRGB;color-interpolation-filters:linearRGB;solid-color:#000000;solid-opacity:1;vector-effect:none;fill:#ffffff;fill-opacity:1;fill-rule:nonzero;stroke:none;stroke-width:1.55977;stroke-linecap:round;stroke-linejoin:round;stroke-miterlimit:4;stroke-dasharray:none;stroke-dashoffset:0;stroke-opacity:1;color-rendering:auto;image-rendering:auto;shape-rendering:auto;text-rendering:auto;enable-background:accumulate;stop-color:#000000;stop-opacity:1"
           d="m 4.2181567,13.584447 c -0.5522847,0 -1.0912058,0.388782 -1.3867485,0.909238 -0.6839348,1.204421 -0.5174181,3.095817 -0.4440249,4.329205 0.1682328,2.827186 1.3925075,3.335862 2.7421276,3.689146 1.672122,0.437705 5.0462701,-1.463206 5.0462701,-1.463206 0.549555,-0.05484 1,-0.447715 1,-1 0,-0.552285 -0.447715,-1 -1,-1 0,0 -2.7959862,-0.327598 -4.0145485,-1.546161 C 5.0743321,16.415767 5.7626375,16.077425 5.5125868,14.4156 5.4427665,13.951578 4.7704414,13.584447 4.2181567,13.584447 Z"
           id="path1814"
           sodipodi:nodetypes="sassssssss" />
      </g>
      <g
         id="g1839">
        <path
           style="color:#000000;font-style:normal;font-variant:normal;font-weight:normal;font-stretch:normal;font-size:medium;line-height:normal;font-family:sans-serif;font-variant-ligatures:normal;font-variant-position:normal;font-variant-caps:normal;font-variant-numeric:normal;font-variant-alternates:normal;font-variant-east-asian:normal;font-feature-settings:normal;font-variation-settings:normal;text-indent:0;text-align:start;text-decoration:none;text-decoration-line:none;text-decoration-style:solid;text-decoration-color:#000000;letter-spacing:normal;word-spacing:normal;text-transform:none;writing-mode:lr-tb;direction:ltr;text-orientation:mixed;dominant-baseline:auto;baseline-shift:baseline;text-anchor:start;white-space:normal;shape-padding:0;shape-margin:0;inline-size:0;clip-rule:nonzero;display:inline;overflow:visible;visibility:visible;opacity:1;isolation:auto;mix-blend-mode:normal;color-interpolation:sRGB;color-interpolation-filters:linearRGB;solid-color:#000000;solid-opacity:1;vector-effect:none;fill:#f2647e;fill-opacity:1;fill-rule:nonzero;stroke:none;stroke-width:1.73727px;stroke-linecap:round;stroke-linejoin:round;stroke-miterlimit:4;stroke-dasharray:none;stroke-dashoffset:0;stroke-opacity:1;color-rendering:auto;image-rendering:auto;shape-rendering:auto;text-rendering:auto;enable-background:accumulate;stop-color:#000000;stop-opacity:1"
           d="m 4.0058594,13.4375 c -0.5522847,0 -0.7895589,0.578174 -1,1 -0.6590225,1.321 -0.8054951,3.169119 -0.6184761,4.38539 0.3256833,2.118067 1.5908746,2.631602 2.9404947,2.984886 C 7,22.245481 10.175781,21.04883 10.175781,21.04883 c 0.549555,-0.05484 1,-0.447715 1,-1 0,-0.552285 -0.447715,-1 -1,-1 0,0 -3.0894053,-0.122415 -4.3079676,-1.340978 C 4.780913,16.62095 5,15.5 5.0058594,14.4375 c 0.0026,-0.471397 -0.4477153,-1 -1,-1 z"
           id="path2020"
           sodipodi:nodetypes="sassssssss" />
        <path
           id="polyline1446"
           style="fill:none;stroke:#f2647e;stroke-width:1.73726;stroke-linecap:round;stroke-linejoin:round;stroke-miterlimit:4;stroke-dasharray:none;stroke-opacity:1"
           d="m 8.0337885,17.101154 2.4259995,2.999382 -2.4259995,3.000618"
           sodipodi:nodetypes="ccc" />
      </g>
      <g
         id="g1820"
         transform="matrix(1.1743707,0,0,1.1752278,-1.1892671,-3.2773977)"
         style="stroke-width:0.739388" />
    </g>
  </g>
</svg>
