<?xml version="1.0" encoding="UTF-8" standalone="no"?>
<svg
   xmlns:dc="http://purl.org/dc/elements/1.1/"
   xmlns:cc="http://creativecommons.org/ns#"
   xmlns:rdf="http://www.w3.org/1999/02/22-rdf-syntax-ns#"
   xmlns:svg="http://www.w3.org/2000/svg"
   xmlns="http://www.w3.org/2000/svg"
   xmlns:sodipodi="http://sodipodi.sourceforge.net/DTD/sodipodi-0.dtd"
   xmlns:inkscape="http://www.inkscape.org/namespaces/inkscape"
   id="Слой_1"
   data-name="Слой 1"
   viewBox="0 0 24 24"
   version="1.1"
   sodipodi:docname="mode_module.svg"
   inkscape:version="1.0.2 (1.0.2+r75+1)">
  <sodipodi:namedview
     pagecolor="#ffffff"
     bordercolor="#666666"
     borderopacity="1"
     objecttolerance="10"
     gridtolerance="10"
     guidetolerance="10"
     inkscape:pageopacity="0"
     inkscape:pageshadow="2"
     inkscape:window-width="2560"
     inkscape:window-height="1371"
     id="namedview30"
     showgrid="true"
     inkscape:zoom="13.980769"
     inkscape:cx="-36.926601"
     inkscape:cy="26.701734"
     inkscape:window-x="0"
     inkscape:window-y="0"
     inkscape:window-maximized="1"
     inkscape:current-layer="Слой_1"
     inkscape:document-rotation="0">
    <inkscape:grid
       type="xygrid"
       id="grid873" />
  </sodipodi:namedview>
  <metadata
     id="metadata43">
    <rdf:RDF>
      <cc:Work
         rdf:about="">
        <cc:license
           rdf:resource="http://creativecommons.org/licenses/by-sa/4.0/" />
        <dc:format>image/svg+xml</dc:format>
        <dc:type
           rdf:resource="http://purl.org/dc/dcmitype/StillImage" />
        <dc:title>module_editor</dc:title>
      </cc:Work>
      <cc:License
         rdf:about="http://creativecommons.org/licenses/by-sa/4.0/">
        <cc:permits
           rdf:resource="http://creativecommons.org/ns#Reproduction" />
        <cc:permits
           rdf:resource="http://creativecommons.org/ns#Distribution" />
        <cc:requires
           rdf:resource="http://creativecommons.org/ns#Notice" />
        <cc:requires
           rdf:resource="http://creativecommons.org/ns#Attribution" />
        <cc:permits
           rdf:resource="http://creativecommons.org/ns#DerivativeWorks" />
        <cc:requires
           rdf:resource="http://creativecommons.org/ns#ShareAlike" />
      </cc:License>
    </rdf:RDF>
  </metadata>
  <defs
     id="defs5">
    <style
       id="style3">.cls-1{fill:none;stroke:#F4EFF3;stroke-linecap:round;stroke-linejoin:round;}.cls-2{fill:#42B8EB;}.cls-3{fill:#f2647e;}.cls-4{fill:#fff;}</style>
  </defs>
  <title
     id="title7">module_editor</title>
  <polygon
     class="cls-1"
     points="21.531,4.063 1.247,4.063 1.247,8.578 2.995,10.153 2.995,12.325 1.247,13.899 1.247,18.922 21.516,18.922 "
     id="polygon9"
     transform="matrix(1.1338986,0,0,1.1442747,-0.91662774,-1.1958747)"
     style="stroke-width:0.877906" />
  <rect
     class="cls-2"
     x="2.9605565"
     y="0.0042999983"
     width="5.0280428"
     height="6.9999995"
     id="rect19"
     style="stroke-width:1" />
  <rect
     class="cls-2"
     x="9.960556"
     y="0.0042999983"
     width="5.0280428"
     height="6.9999995"
     id="rect875"
     style="stroke-width:1" />
  <rect
     class="cls-2"
     x="16.960556"
     y="0.0042999983"
     width="5.0280428"
     height="6.9999995"
     id="rect877"
     style="stroke-width:1" />
  <rect
     class="cls-2"
     x="2.9605565"
     y="17.004299"
     width="5.0280428"
     height="6.9999995"
     id="rect879"
     style="stroke-width:1" />
  <rect
     class="cls-2"
     x="9.960556"
     y="17.004299"
     width="5.0280428"
     height="6.9999995"
     id="rect881"
     style="stroke-width:1" />
  <rect
     class="cls-2"
     x="16.960556"
     y="17.004299"
     width="5.0280428"
     height="6.9999995"
     id="rect883"
     style="stroke-width:1" />
  <circle
     class="cls-3"
     cx="17"
     cy="17"
     id="ellipse22"
     style="fill:#f2647e;stroke-width:0.999999"
     r="7" />
  <polygon
     class="cls-1"
     points="24.995,13 20.203,8.208 20.203,17.792 "
     id="polygon8-3"
     style="fill:#ffffff;fill-opacity:1;stroke:none;stroke-width:1.59658;stroke-linecap:round;stroke-linejoin:round"
     transform="matrix(0.62604341,0,0,0.62663367,7.4038626,8.856591)" />
  <polygon
     class="cls-1"
     points="17.792,5.797 13,1.005 8.208,5.797 "
     id="polygon10"
     style="fill:#ffffff;fill-opacity:1;stroke:none;stroke-width:1.59809;stroke-linecap:round;stroke-linejoin:round;stroke-opacity:1"
     transform="matrix(0.6254537,0,0,0.62604341,8.869102,10.370826)" />
  <polygon
     class="cls-1"
     points="17.792,20.203 8.208,20.203 13,24.995 "
     id="polygon12"
     style="fill:#ffffff;fill-opacity:1;stroke:none;stroke-width:1.59809;stroke-linecap:round;stroke-linejoin:round"
     transform="matrix(0.6254537,0,0,0.62604341,8.8691019,7.352045)" />
  <polygon
     class="cls-1"
     points="5.797,17.792 5.797,8.208 1.005,13 "
     id="polygon14"
     style="fill:#ffffff;fill-opacity:1;stroke:none;stroke-width:1.59658;stroke-linecap:round;stroke-linejoin:round"
     transform="matrix(0.62604341,0,0,0.62663367,10.370826,8.853762)" />
  <rect
     class="cls-1"
     x="16"
     y="12.986511"
     width="2"
     height="8.0130005"
     id="rect16-6"
     style="fill:#ffffff;fill-opacity:1;stroke:none;stroke-width:0.999995;stroke-linecap:round;stroke-linejoin:round" />
  <rect
     class="cls-1"
     x="16"
     y="-21.0109"
     width="2"
     height="8.0054064"
     transform="rotate(90)"
     id="rect18-7"
     style="fill:#ffffff;fill-opacity:1;stroke:none;stroke-width:0.999996;stroke-linecap:round;stroke-linejoin:round" />
</svg>
